lr: 0.1 mom: 0.9 batch_size: 32
0,0.10845,0.1016
1,0.08718333333333333,0.0846
2,0.07591666666666666,0.074
3,0.06816666666666667,0.0675
4,0.06281666666666667,0.0623
5,0.058166666666666665,0.0591
6,0.05446666666666666,0.0567
7,0.051116666666666664,0.0553
8,0.04861666666666667,0.0524
9,0.046483333333333335,0.0504
10,0.04471666666666667,0.0491
11,0.04276666666666667,0.0465
12,0.040966666666666665,0.0451
13,0.0398,0.0442
14,0.03866666666666667,0.043
15,0.03763333333333333,0.042
16,0.03651666666666667,0.0418
17,0.0358,0.0402
18,0.03495,0.0401
19,0.03411666666666666,0.0393
20,0.033183333333333336,0.0389
21,0.032716666666666665,0.0391
22,0.032233333333333336,0.0387
23,0.03161666666666667,0.0385
