lr: 0.100000 mom: 0.900000 batch_size: 32
0,0.076033,0.078200
1,0.051817,0.056200
2,0.038100,0.043300
3,0.036083,0.043800
4,0.021983,0.031400
5,0.014800,0.027400
6,0.013300,0.026200
7,0.011883,0.026500
8,0.011250,0.026200
9,0.010367,0.026400
10,0.008900,0.024900
11,0.008250,0.024400
12,0.007867,0.024400
13,0.007317,0.024400
